{
    "name": "LecturesSchedules",
    "alias": "lecturesschedules",
    "description": "",
    "keywords": [],
    "active": 1,
    "order": 0,
    "providers": [
        "Modules\\LecturesSchedules\\Providers\\LecturesSchedulesServiceProvider"
    ],
    "aliases": {},
    "files": [],
    "requires": []
}
