{
    "name": "Buses",
    "alias": "buses",
    "description": "",
    "keywords": [],
    "active": 1,
    "order": 0,
    "providers": [
        "Modules\\Buses\\Providers\\BusesServiceProvider"
    ],
    "aliases": {},
    "files": [],
    "requires": []
}
