{
    "name": "Teachers",
    "alias": "teachers",
    "description": "",
    "keywords": [],
    "active": 1,
    "order": 0,
    "providers": [
        "Modules\\Teachers\\Providers\\TeachersServiceProvider"
    ],
    "aliases": {},
    "files": [],
    "requires": []
}
