{
    "name": "Honors",
    "alias": "honors",
    "description": "",
    "keywords": [],
    "active": 1,
    "order": 0,
    "providers": [
        "Modules\\Honors\\Providers\\HonorsServiceProvider"
    ],
    "aliases": {},
    "files": [],
    "requires": []
}
